<?xml version="1.0" encoding="UTF-8" standalone="no"?>
<!-- Created with Inkscape (http://www.inkscape.org/) -->

<svg
   width="49.053253mm"
   height="45.968941mm"
   viewBox="0 0 49.053252 45.968941"
   version="1.1"
   id="svg1"
   xml:space="preserve"
   xmlns="http://www.w3.org/2000/svg"
   xmlns:svg="http://www.w3.org/2000/svg"><defs
     id="defs1" /><g
     id="layer1"
     transform="translate(-22.031118,-108.2442)"><path
       style="fill:#ffffff;fill-opacity:1;stroke:#000000;stroke-width:0.264583px;stroke-linecap:butt;stroke-linejoin:miter;stroke-opacity:1"
       d="m 28.987182,138.81323 -6.770368,-7.36819 24.368056,-23.01863 24.312243,23.09057 -7.215007,7.56012 -16.776934,-15.50379 z"
       id="path1" /><path
       style="fill:#ffffff;fill-opacity:1;stroke:#000000;stroke-width:0.264583px;stroke-linecap:butt;stroke-linejoin:miter;stroke-opacity:1"
       d="m 51.243355,153.42545 c 0,0 8.963349,-13.67796 6.861727,-17.68384 -2.535165,-4.83225 -4.902513,-4.7215 -5.9567,-4.61965 -2.084287,-0.15596 -3.871999,4.40568 -3.373182,6.4856 0.03565,0.14864 -5.22126,-6.14093 -10.150746,-5.43924 -4.929486,0.70169 -2.490219,8.57296 -1.192652,10.10548 1.662804,1.96389 8.6089,8.73747 13.811553,11.15165 z"
       id="path2" /><path
       style="display:inline;fill:#3d3d3d;fill-opacity:1;stroke:#000000;stroke-width:0.264583px;stroke-linecap:butt;stroke-linejoin:miter;stroke-opacity:1"
       d="m 46.20099,137.7901 c 0,0 -0.750847,4.3063 0.321227,4.3063 1.072073,0 10.499505,-12.18234 10.499505,-12.18234 l -3.842233,0.69727 c 0,0 7.963652,-6.1634 8.15911,-6.26204 1.959541,-0.98896 -1.132319,10.18491 -1.132319,10.18491 l -1.212957,-4.15947 c 0,0 -11.795081,15.66088 -13.742205,16.79191 -1.08435,0.62987 -1.375175,-1.38858 -1.706342,-3.14275 0,0 -7.952779,9.67001 -7.110458,10.03971 0.710902,0.31202 -3.625952,-3.76061 -3.625952,-3.76061 3.574912,-4.53046 9.300278,-8.29428 13.392624,-12.51289 z"
       id="path3-9" /></g></svg>
